module interpol-notices

go 1.17

require (
	github.com/go-co-op/gocron v1.11.0
	github.com/imroc/req v0.3.2
	github.com/rs/zerolog v1.26.0
	go.mongodb.org/mongo-driver v1.8.1
	gopkg.in/tucnak/telebot.v3 v3.0.0-20211126232936-7f936709f3ee
)

require (
	github.com/go-stack/stack v1.8.1 // indirect
	github.com/golang/snappy v0.0.4 // indirect
	github.com/klauspost/compress v1.13.6 // indirect
	github.com/pkg/errors v0.9.1 // indirect
	github.com/robfig/cron/v3 v3.0.1 // indirect
	github.com/xdg-go/pbkdf2 v1.0.0 // indirect
	github.com/xdg-go/scram v1.0.2 // indirect
	github.com/xdg-go/stringprep v1.0.2 // indirect
	github.com/youmark/pkcs8 v0.0.0-20201027041543-1326539a0a0a // indirect
	golang.org/x/crypto v0.0.0-20211209193657-4570a0811e8b // indirect
	golang.org/x/sync v0.0.0-20210220032951-036812b2e83c // indirect
	golang.org/x/text v0.3.7 // indirect
)
